{
	"type": "minecraft:crafting_shaped",
	"pattern": [
		"ABA",
		"ACA",
		" D "
	],
	"key": {
		"A": {
			"item": "minecraft:purpur_slab"
		},
		"B": {
			"item": "minecraft:diamond"
		},
		"C": {
			"item": "minecraft:hopper"
		},
		"D": {
			"item": "minecraft:obsidian"
		}
	},
	"result": {
		"item": "displacer:displacer",
		"count": 4
	}
}
